<svg width="26" height="26" viewBox="0 0 26 26" fill="none" xmlns="http://www.w3.org/2000/svg">
<path d="M13 26C20.1797 26 26 20.1797 26 13C26 5.8203 20.1797 0 13 0C5.8203 0 0 5.8203 0 13C0 20.1797 5.8203 26 13 26Z" fill="#3B5998"/>
<path d="M16.2682 13.5083H13.9485V22.0066H10.434V13.5083H8.76244V10.5217H10.434V8.589C10.434 7.20692 11.0905 5.04272 13.9798 5.04272L16.5831 5.05362V7.95265H14.6942C14.3844 7.95265 13.9487 8.10745 13.9487 8.76674V10.5245H16.5752L16.2682 13.5083Z" fill="white"/>
</svg>
