<svg width="17" height="17" viewBox="0 0 17 17" fill="none" xmlns="http://www.w3.org/2000/svg">
<path d="M5.49609 5.5L1.57069 1.57258C2.07736 1.06592 2.42329 0.686114 2.93096 0.178441C3.16566 -0.0562575 3.5444 -0.0602867 3.7801 0.17139L6.83823 3.23254C7.07192 3.46623 7.07192 3.85101 6.83521 4.08672L6.16536 4.75556L5.54185 5.37907C5.4653 5.45663 5.55552 5.41136 5.49609 5.5ZM8.56573 12.0252C7.92308 11.4722 7.30662 10.8849 6.70829 10.2876C6.11097 9.68623 5.52573 9.07179 4.97172 8.42611C4.51844 7.90232 4.4298 7.14384 4.66652 6.50522L0.637364 2.47506C-0.300421 3.43903 -0.180554 5.82933 0.84688 7.92952C1.28807 8.8381 1.86021 9.65803 2.45149 10.4377C3.04176 11.2113 3.68945 11.9426 4.37138 12.6295C5.05533 13.3155 5.78259 13.9662 6.5582 14.5565C7.33784 15.1498 8.15979 15.7179 9.06232 16.1581C11.1655 17.1845 13.5568 17.2973 14.5198 16.3585L10.4896 12.3283C9.85103 12.5651 9.09153 12.4774 8.56573 12.0252ZM16.8205 13.2148L13.7623 10.1556C13.5276 9.92395 13.1428 9.92395 12.9081 10.1587H12.9061L12.2343 10.8295L11.6148 11.452C11.5382 11.5286 11.6687 11.4375 11.5801 11.5L15.5045 15.4264C16.0121 14.9177 16.3047 14.5706 16.8134 14.0639C17.0501 13.8292 17.0551 13.4495 16.8205 13.2148Z" fill="#BABABA"/>
</svg>
